Chapter 3 Intro to R Part II | ResBaz Arizona 2020 Intro to R
…
The pipe allows us to apply multiple functions to the same object.

Let’s start by selecting one column in our data.

avocado_data %>% 
  select(type)

## # A tibble: 18,249 x 1
##    type        
##    <chr>       
##  1 conventional
##  2 conventional
##  3 conventional
##  4 conventional
##  5 conventional
##  6 conventional
##  7 conventional
##  8 conventional
##  9 conventional
## 10 conventional
## # … with 18,239 more rows
…
## # A tibble: 2 x 2
## # Groups:   type [2]
##   type             n
##   <chr>        <int>
## 1 conventional  9126
## 2 organic       9123

We can add more variables to the group_by() function.

avocado_data %>% 
  group_by(region, type) %>%
  count()

## # A tibble: 108 x 3
## # Groups:   region, type [108]
##    region              type             n
##    <chr>               <chr>        <int>
##  1 Albany              conventional   169
##  2 Albany              organic        169
##  3 Atlanta             conventional   169
##  4 Atlanta             organic        169
##  5 BaltimoreWashington conventional   169
##  6 BaltimoreWashington organic        169
##  7 Boise               conventional   169
##  8 Boise               organic        169
##  9 Boston              conventional   169
## 10 Boston              organic        169
## # … with 98 more rows

3.5.2 Group by + summarise

We can also use the summarise() function after group_by(). Inside summarise() you can use other functions such as sum().

avocado_data %>% 
  group_by(region, type) %>%
  summarise(total_volume = sum(`Total Volume`))

## # A tibble: 108 x 3
## # Groups:   region [54]
##    region              type         total_volume
##    <chr>               <chr>               <dbl>
##  1 Albany              conventional    15700611.
##  2 Albany              organic           367188.
##  3 Atlanta             conventional    86661392.
##  4 Atlanta             organic          1943727.
##  5 BaltimoreWashington conventional   130745575.
##  6 BaltimoreWashington organic          3968344.
##  7 Boise               conventional    14000540.
##  8 Boise               organic           412647.
##  9 Boston              conventional    94900438.
## 10 Boston              organic          2373547.
## # … with 98 more rows

Let’s add another pipe and arrange the results by total_volume.

avocado_data %>% 
  group_by(region) %>%
  summarise(total_volume = sum(`Total Volume`)) %>%
  arrange(total_volume)

## # A tibble: 54 x 2
##    region           total_volume
##    <chr>                   <dbl>
##  1 Syracuse            10942668.
##  2 Boise               14413188.
##  3 Spokane             15565275.
##  4 Albany              16067800.
##  5 Louisville          16097002.
##  6 Pittsburgh          18806346.
##  7 BuffaloRochester    22962470.
##  8 Roanoke             25042011.
##  9 Jacksonville        28790005.
## 10 Columbus            29993361.
## # … with 44 more rows

3.6 Mutate

You can use mutate() to add a new column to your data.

avocado_data %>% 
  group_by(region, type) %>%
  summarise(total_type_volume = sum(`Total Volume`)) %>%
  mutate(total_volume = sum(total_type_volume))

## # A tibble: 108 x 4
## # Groups:   region [54]
##    region              type         total_type_volume total_volume
##    <chr>               <chr>                    <dbl>        <dbl>
##  1 Albany              conventional         15700611.    16067800.
##  2 Albany              organic                367188.    16067800.
##  3 Atlanta             conventional         86661392.    88605119.
##  4 Atlanta             organic               1943727.    88605119.
##  5 BaltimoreWashington conventional        130745575.   134713919.
##  6 BaltimoreWashington organic               3968344.   134713919.
##  7 Boise               conventional         14000540.    14413188.
##  8 Boise               organic                412647.    14413188.
##  9 Boston              conventional         94900438.    97273985.
## 10 Boston              organic               2373547.    97273985.
## # … with 98 more rows
…
Base on volume_type_region calculate the mean and standard deviation of type percentage per type (i.e., conventional vs. organic). Question: What is the percentage of conventional vs. organic avocados sold in each region?

CHALLENGE #2

Calculate the average avocado price for each type in each region.

3.7 Filter your data

One of the “regions” in our data is TotalUS which is not really a specific region, but the sum of all the other regions. To calculate averages per year, for example, we need to filter our the TotalUS region.

avocado_data %>% 
  filter(region != 'TotalUS')

## # A tibble: 17,911 x 14
##       X1 Date       AveragePrice `Total Volume` `4046` `4225` `4770`
##    <dbl> <date>            <dbl>          <dbl>  <dbl>  <dbl>  <dbl>
##  1     0 2015-12-27         1.33         64237.  1037. 5.45e4   48.2
##  2     1 2015-12-20         1.35         54877.   674. 4.46e4   58.3
##  3     2 2015-12-13         0.93        118220.   795. 1.09e5  130. 
##  4     3 2015-12-06         1.08         78992.  1132  7.20e4   72.6
##  5     4 2015-11-29         1.28         51040.   941. 4.38e4   75.8
##  6     5 2015-11-22         1.26         55980.  1184. 4.81e4   43.6
##  7     6 2015-11-15         0.99         83454.  1369. 7.37e4   93.3
##  8     7 2015-11-08         0.98        109428.   704. 1.02e5   80  
##  9     8 2015-11-01         1.02         99811.  1022. 8.73e4   85.3
## 10     9 2015-10-25         1.07         74339.   842. 6.48e4  113  
## # … with 17,901 more rows, and 7 more variables: `Total Bags` <dbl>, `Small
## #   Bags` <dbl>, `Large Bags` <dbl>, `XLarge Bags` <dbl>, type <chr>,
## #   year <dbl>, region <chr>
…
